info face=BauCua_Red size=28 bold=1 italic=0 charset= unicode= stretchH=100 smooth=1 aa=1 padding=2,2,2,2 spacing=0,0 outline=0
common lineHeight=37 base=24 scaleW=150 scaleH=510 pages=1 packed=0
page id=0 file="BauCua_Red.png"
chars count=91
char id=97 x=2 y=2 width=19 height=21 xoffset=1 yoffset=8 xadvance=15 page=0 chnl=15
char id=98 x=2 y=25 width=19 height=27 xoffset=2 yoffset=2 xadvance=16 page=0 chnl=15
char id=99 x=2 y=54 width=18 height=21 xoffset=1 yoffset=8 xadvance=14 page=0 chnl=15
char id=100 x=2 y=77 width=19 height=27 xoffset=1 yoffset=2 xadvance=16 page=0 chnl=15
char id=101 x=22 y=54 width=18 height=21 xoffset=1 yoffset=8 xadvance=15 page=0 chnl=15
char id=102 x=23 y=2 width=15 height=27 xoffset=0 yoffset=2 xadvance=10 page=0 chnl=15
char id=103 x=40 y=2 width=19 height=26 xoffset=1 yoffset=8 xadvance=16 page=0 chnl=15
char id=104 x=2 y=106 width=18 height=27 xoffset=1 yoffset=2 xadvance=16 page=0 chnl=15
char id=105 x=2 y=135 width=9 height=27 xoffset=2 yoffset=2 xadvance=7 page=0 chnl=15
char id=106 x=2 y=164 width=13 height=33 xoffset=-1 yoffset=2 xadvance=7 page=0 chnl=15
char id=107 x=13 y=135 width=19 height=27 xoffset=2 yoffset=2 xadvance=15 page=0 chnl=15
char id=108 x=22 y=106 width=9 height=27 xoffset=2 yoffset=2 xadvance=7 page=0 chnl=15
char id=109 x=23 y=31 width=27 height=20 xoffset=2 yoffset=8 xadvance=24 page=0 chnl=15
char id=110 x=23 y=77 width=18 height=20 xoffset=1 yoffset=8 xadvance=16 page=0 chnl=15
char id=111 x=42 y=53 width=19 height=21 xoffset=1 yoffset=8 xadvance=16 page=0 chnl=15
char id=112 x=33 y=99 width=19 height=26 xoffset=2 yoffset=8 xadvance=16 page=0 chnl=15
char id=113 x=61 y=2 width=19 height=26 xoffset=1 yoffset=8 xadvance=16 page=0 chnl=15
char id=114 x=52 y=30 width=14 height=20 xoffset=2 yoffset=8 xadvance=10 page=0 chnl=15
char id=115 x=43 y=76 width=18 height=21 xoffset=1 yoffset=8 xadvance=14 page=0 chnl=15
char id=116 x=2 y=199 width=14 height=24 xoffset=0 yoffset=5 xadvance=10 page=0 chnl=15
char id=117 x=17 y=164 width=18 height=20 xoffset=1 yoffset=8 xadvance=16 page=0 chnl=15
char id=118 x=34 y=127 width=19 height=20 xoffset=0 yoffset=8 xadvance=14 page=0 chnl=15
char id=119 x=54 y=99 width=25 height=20 xoffset=0 yoffset=8 xadvance=21 page=0 chnl=15
char id=120 x=63 y=52 width=19 height=20 xoffset=0 yoffset=8 xadvance=14 page=0 chnl=15
char id=121 x=82 y=2 width=20 height=26 xoffset=0 yoffset=8 xadvance=14 page=0 chnl=15
char id=122 x=68 y=30 width=18 height=20 xoffset=1 yoffset=8 xadvance=14 page=0 chnl=15
char id=65 x=2 y=225 width=23 height=25 xoffset=0 yoffset=3 xadvance=18 page=0 chnl=15
char id=66 x=18 y=186 width=20 height=25 xoffset=2 yoffset=3 xadvance=18 page=0 chnl=15
char id=67 x=37 y=149 width=21 height=26 xoffset=1 yoffset=3 xadvance=18 page=0 chnl=15
char id=68 x=55 y=121 width=21 height=25 xoffset=2 yoffset=3 xadvance=18 page=0 chnl=15
char id=69 x=2 y=252 width=19 height=25 xoffset=2 yoffset=3 xadvance=16 page=0 chnl=15
char id=70 x=2 y=279 width=19 height=25 xoffset=2 yoffset=3 xadvance=16 page=0 chnl=15
char id=71 x=2 y=306 width=21 height=26 xoffset=1 yoffset=3 xadvance=19 page=0 chnl=15
char id=72 x=23 y=252 width=21 height=25 xoffset=2 yoffset=3 xadvance=20 page=0 chnl=15
char id=73 x=23 y=279 width=9 height=25 xoffset=2 yoffset=3 xadvance=8 page=0 chnl=15
char id=74 x=27 y=213 width=19 height=26 xoffset=1 yoffset=3 xadvance=16 page=0 chnl=15
char id=75 x=40 y=177 width=22 height=25 xoffset=2 yoffset=3 xadvance=18 page=0 chnl=15
char id=76 x=60 y=148 width=18 height=25 xoffset=2 yoffset=3 xadvance=15 page=0 chnl=15
char id=77 x=78 y=121 width=26 height=25 xoffset=2 yoffset=3 xadvance=24 page=0 chnl=15
char id=78 x=81 y=74 width=21 height=25 xoffset=2 yoffset=3 xadvance=20 page=0 chnl=15
char id=79 x=88 y=30 width=22 height=26 xoffset=1 yoffset=3 xadvance=19 page=0 chnl=15
char id=80 x=104 y=2 width=21 height=25 xoffset=2 yoffset=3 xadvance=18 page=0 chnl=15
char id=81 x=104 y=58 width=23 height=29 xoffset=1 yoffset=3 xadvance=20 page=0 chnl=15
char id=82 x=112 y=29 width=21 height=25 xoffset=2 yoffset=3 xadvance=19 page=0 chnl=15
char id=83 x=104 y=89 width=21 height=26 xoffset=1 yoffset=3 xadvance=18 page=0 chnl=15
char id=84 x=127 y=2 width=21 height=25 xoffset=0 yoffset=3 xadvance=16 page=0 chnl=15
char id=85 x=2 y=334 width=21 height=26 xoffset=2 yoffset=3 xadvance=19 page=0 chnl=15
char id=86 x=2 y=362 width=23 height=25 xoffset=0 yoffset=3 xadvance=18 page=0 chnl=15
char id=87 x=25 y=306 width=29 height=25 xoffset=0 yoffset=3 xadvance=25 page=0 chnl=15
char id=88 x=34 y=279 width=23 height=25 xoffset=0 yoffset=3 xadvance=18 page=0 chnl=15
char id=89 x=25 y=333 width=23 height=25 xoffset=0 yoffset=3 xadvance=18 page=0 chnl=15
char id=90 x=46 y=241 width=20 height=25 xoffset=1 yoffset=3 xadvance=16 page=0 chnl=15
char id=33 x=48 y=204 width=9 height=25 xoffset=2 yoffset=3 xadvance=8 page=0 chnl=15
char id=8470 x=59 y=204 width=33 height=26 xoffset=2 yoffset=3 xadvance=31 page=0 chnl=15
char id=59 x=64 y=175 width=10 height=25 xoffset=2 yoffset=8 xadvance=8 page=0 chnl=15
char id=37 x=76 y=175 width=24 height=26 xoffset=1 yoffset=3 xadvance=21 page=0 chnl=15
char id=58 x=63 y=74 width=9 height=21 xoffset=2 yoffset=8 xadvance=8 page=0 chnl=15
char id=63 x=2 y=389 width=18 height=26 xoffset=0 yoffset=3 xadvance=14 page=0 chnl=15
char id=42 x=81 y=101 width=17 height=17 xoffset=0 yoffset=3 xadvance=12 page=0 chnl=15
char id=40 x=2 y=417 width=13 height=34 xoffset=2 yoffset=1 xadvance=10 page=0 chnl=15
char id=41 x=2 y=453 width=13 height=33 xoffset=0 yoffset=1 xadvance=10 page=0 chnl=15
char id=95 x=84 y=58 width=18 height=8 xoffset=0 yoffset=23 xadvance=12 page=0 chnl=15
char id=43 x=2 y=488 width=19 height=20 xoffset=1 yoffset=7 xadvance=15 page=0 chnl=15
char id=45 x=27 y=241 width=13 height=8 xoffset=2 yoffset=13 xadvance=11 page=0 chnl=15
char id=61 x=80 y=148 width=18 height=14 xoffset=2 yoffset=10 xadvance=16 page=0 chnl=15
char id=46 x=80 y=164 width=9 height=9 xoffset=2 yoffset=20 xadvance=8 page=0 chnl=15
char id=44 x=100 y=148 width=10 height=13 xoffset=1 yoffset=20 xadvance=7 page=0 chnl=15
char id=47 x=106 y=117 width=17 height=27 xoffset=0 yoffset=3 xadvance=11 page=0 chnl=15
char id=124 x=17 y=417 width=8 height=29 xoffset=2 yoffset=3 xadvance=7 page=0 chnl=15
char id=34 x=22 y=389 width=13 height=13 xoffset=1 yoffset=2 xadvance=9 page=0 chnl=15
char id=39 x=27 y=360 width=8 height=13 xoffset=1 yoffset=2 xadvance=5 page=0 chnl=15
char id=64 x=17 y=448 width=28 height=31 xoffset=1 yoffset=4 xadvance=25 page=0 chnl=15
char id=35 x=23 y=481 width=21 height=25 xoffset=1 yoffset=3 xadvance=17 page=0 chnl=15
char id=36 x=27 y=404 width=19 height=31 xoffset=1 yoffset=0 xadvance=16 page=0 chnl=15
char id=94 x=46 y=481 width=16 height=15 xoffset=1 yoffset=3 xadvance=12 page=0 chnl=15
char id=38 x=47 y=437 width=22 height=26 xoffset=1 yoffset=3 xadvance=18 page=0 chnl=15
char id=123 x=37 y=360 width=13 height=32 xoffset=1 yoffset=1 xadvance=9 page=0 chnl=15
char id=125 x=48 y=394 width=13 height=32 xoffset=0 yoffset=1 xadvance=9 page=0 chnl=15
char id=91 x=64 y=465 width=11 height=33 xoffset=2 yoffset=0 xadvance=8 page=0 chnl=15
char id=93 x=52 y=333 width=11 height=33 xoffset=0 yoffset=0 xadvance=8 page=0 chnl=15
char id=48 x=59 y=268 width=19 height=26 xoffset=1 yoffset=3 xadvance=16 page=0 chnl=15
char id=49 x=56 y=306 width=13 height=25 xoffset=2 yoffset=3 xadvance=16 page=0 chnl=15
char id=50 x=68 y=232 width=19 height=26 xoffset=1 yoffset=3 xadvance=16 page=0 chnl=15
char id=51 x=63 y=368 width=19 height=26 xoffset=1 yoffset=3 xadvance=16 page=0 chnl=15
char id=52 x=65 y=333 width=20 height=25 xoffset=1 yoffset=3 xadvance=16 page=0 chnl=15
char id=53 x=71 y=296 width=19 height=26 xoffset=1 yoffset=3 xadvance=16 page=0 chnl=15
char id=54 x=80 y=260 width=19 height=26 xoffset=1 yoffset=3 xadvance=16 page=0 chnl=15
char id=55 x=89 y=232 width=19 height=25 xoffset=1 yoffset=3 xadvance=16 page=0 chnl=15
char id=56 x=94 y=203 width=19 height=26 xoffset=1 yoffset=3 xadvance=16 page=0 chnl=15
char id=57 x=102 y=163 width=19 height=26 xoffset=1 yoffset=3 xadvance=16 page=0 chnl=15
char id=32 x=0 y=0 width=0 height=0 xoffset=1 yoffset=3 xadvance=7 page=0 chnl=15
